…
## Example

`firomax` contains an example set of inputs that are set as defaults in
the `schedule_release` function:

``` r
# load firomax
library(firomax)

# run firomax with default set of inputs
firomax_output <- schedule_release()

# view output
firomax_output
#> # A tibble: 29 × 7
#>     time storage_sim release_spill release_turbine benefit_revenue price_price
#>    <int>       <dbl>         <dbl>           <dbl>           <dbl>       <dbl>
#>  1     1       1000              0               1            6568       16.4 
#>  2     2       1000              0               1            9308       23.3 
#>  3     3       1000.             0               1            8052       20.1 
#>  4     4       1000.             0               1           10004       25.0 
#>  5     5       1001.             0               1            5664       14.2 
#>  6     6       1001.             0               1            2912        7.28
#>  7     7       1001.             0               1           -3672       -9.18
#>  8     8       1002.             0               1           10660       26.6 
#>  9     9       1002.             0               1            8672       21.7 
#> 10    10       1002.             0               1           11216       28.0 
#> # … with 19 more rows, and 1 more variable: inflow_actual <dbl>
```
…
